{
  "images": [{
    "id": 23176823,
    "name": "1325.2.0 (beta)",
    "distribution": "CoreOS",
    "slug": "coreos-beta",
    "public": true,
    "regions": ["nyc1", "sfo1", "nyc2", "ams2", "sgp1", "lon1", "nyc3", "ams3", "fra1", "tor1", "sfo2", "blr1"],
    "created_at": "2017-03-01T20:36:26Z",
    "min_disk_size": 20,
    "type": "snapshot",
    "size_gigabytes": 0.33
  }, {
    "id": 6372321,
    "name": "5.10 x64",
    "distribution": "CentOS",
    "slug": null,
    "public": true,
    "regions": ["nyc1", "ams1", "sfo1", "nyc2", "ams2", "sgp1", "lon1", "nyc3", "ams3", "fra1", "tor1"],
    "created_at": "2014-09-26T16:40:18Z",
    "min_disk_size": 20,
    "type": "snapshot",
    "size_gigabytes": 1.42
  }, {
    "id": 6372425,
    "name": "5.10 x32",
    "distribution": "CentOS",
    "slug": null,
    "public": true,
    "regions": ["nyc1", "ams1", "sfo1", "nyc2", "ams2", "sgp1", "lon1", "nyc3", "ams3", "fra1", "tor1", "sfo2", "blr1"],
    "created_at": "2014-09-26T16:45:29Z",
    "min_disk_size": 20,
    "type": "snapshot",
    "size_gigabytes": 1.19
  }, {
    "id": 13764801,
    "name": "Elixir on 14.04",
    "distribution": "Ubuntu",
    "slug": null,
    "public": true,
    "regions": ["nyc1", "sfo1", "nyc2", "ams2", "sgp1", "lon1", "nyc3", "ams3", "fra1", "tor1", "sfo2", "blr1"],
    "created_at": "2015-09-30T15:42:07Z",
    "min_disk_size": 30,
    "type": "snapshot",
    "size_gigabytes": 1.85
  }, {
    "id": 14238961,
    "name": "23 x64",
    "distribution": "Fedora",
    "slug": null,
    "public": true,
    "regions": ["nyc1", "sfo1", "nyc2", "ams2", "sgp1", "lon1", "nyc3", "ams3", "fra1", "tor1", "sfo2", "blr1"],
    "created_at": "2015-11-03T17:35:54Z",
    "min_disk_size": 20,
    "type": "snapshot",
    "size_gigabytes": 0.51
  }, {
    "id": 14782899,
    "name": "6.7 x32",
    "distribution": "CentOS",
    "slug": "centos-6-5-x32",
    "public": true,
    "regions": ["nyc1", "sfo1", "nyc2", "ams2", "sgp1", "lon1", "nyc3", "ams3", "fra1", "tor1", "sfo2", "blr1"],
    "created_at": "2015-12-10T17:10:48Z",
    "min_disk_size": 20,
    "type": "snapshot",
    "size_gigabytes": 0.5
  }, {
    "id": 14782952,
    "name": "6.7 x64",
    "distribution": "CentOS",
    "slug": "centos-6-5-x64",
    "public": true,
    "regions": ["nyc1", "sfo1", "nyc2", "ams2", "sgp1", "lon1", "nyc3", "ams3", "fra1", "tor1", "sfo2", "blr1"],
    "created_at": "2015-12-10T17:19:06Z",
    "min_disk_size": 20,
    "type": "snapshot",
    "size_gigabytes": 0.53
  }, {
    "id": 16071652,
    "name": "cloudbench-ycsb-on-1404.030216-1",
    "distribution": "Ubuntu",
    "slug": null,
    "public": true,
    "regions": ["nyc1", "sfo1", "nyc2", "ams2", "sgp1", "lon1", "nyc3", "ams3", "fra1", "tor1", "sfo2", "blr1"],
    "created_at": "2016-03-02T16:16:02Z",
    "min_disk_size": 60,
    "type": "snapshot",
    "size_gigabytes": 2.99
  }, {
    "id": 16071743,
    "name": "cloudbench-hibench-on-1404.030216-1",
    "distribution": "Ubuntu",
    "slug": null,
    "public": true,
    "regions": ["nyc1", "sfo1", "nyc2", "ams2", "sgp1", "lon1", "nyc3", "ams3", "fra1", "tor1", "sfo2", "blr1"],
    "created_at": "2016-03-02T16:41:16Z",
    "min_disk_size": 60,
    "type": "snapshot",
    "size_gigabytes": 4.14
  }, {
    "id": 16082940,
    "name": "cloudbench-nullworkload-on-1404.030316-6",
    "distribution": "Ubuntu",
    "slug": null,
    "public": true,
    "regions": ["nyc1", "sfo1", "nyc2", "ams2", "sgp1", "lon1", "nyc3", "ams3", "fra1", "tor1", "sfo2", "blr1"],
    "created_at": "2016-03-03T07:39:02Z",
    "min_disk_size": 20,
    "type": "snapshot",
    "size_gigabytes": 2.5
  }, {
    "id": 16376426,
    "name": "Cassandra on 14.04",
    "distribution": "Ubuntu",
    "slug": "cassandra",
    "public": true,
    "regions": ["nyc1", "sfo1", "nyc2", "ams2", "sgp1", "lon1", "nyc3", "ams3", "fra1", "tor1", "sfo2", "blr1"],
    "created_at": "2016-03-21T04:25:45Z",
    "min_disk_size": 30,
    "type": "snapshot",
    "size_gigabytes": 0.59
  }, {
    "id": 16623283,
    "name": "7.10 x32",
    "distribution": "Debian",
    "slug": "debian-7-0-x32",
    "public": true,
    "regions": ["nyc1", "sfo1", "nyc2", "ams2", "sgp1", "lon1", "nyc3", "ams3", "fra1", "tor1", "sfo2", "blr1"],
    "created_at": "2016-04-04T18:11:05Z",
    "min_disk_size": 20,
    "type": "snapshot",
    "size_gigabytes": 0.84
  }, {
    "id": 16623308,
    "name": "7.10 x64",
    "distribution": "Debian",
    "slug": "debian-7-0-x64",
    "public": true,
    "regions": ["nyc1", "sfo1", "nyc2", "ams2", "sgp1", "lon1", "nyc3", "ams3", "fra1", "tor1", "sfo2", "blr1"],
    "created_at": "2016-04-04T18:18:11Z",
    "min_disk_size": 20,
    "type": "snapshot",
    "size_gigabytes": 0.87
  }, {
    "id": 17384153,
    "name": "7.2 x64",
    "distribution": "CentOS",
    "slug": null,
    "public": true,
    "regions": ["nyc1", "sfo1", "nyc2", "ams2", "sgp1", "lon1", "nyc3", "ams3", "fra1", "tor1", "sfo2", "blr1"],
    "created_at": "2016-05-17T16:17:10Z",
    "min_disk_size": 20,
    "type": "snapshot",
    "size_gigabytes": 0.43
  }, {
    "id": 28108256, //
    "name": "7.4.1708 x64",
    "distribution": "CentOS",
    "slug": "centos-7-x64",
    "public": true,
    "regions": ["nyc1", "sfo1", "nyc2", "ams2", "sgp1", "lon1", "nyc3", "ams3", "fra1", "tor1", "sfo2", "blr1"],
    "created_at": "2017-09-26T18:36:06Z",
    "min_disk_size": 20,
    "type": "snapshot",
    "size_gigabytes": 0.38
  }, {
    "id": 17550956,
    "name": "hadoop1",
    "distribution": "Ubuntu",
    "slug": null,
    "public": true,
    "regions": ["nyc1", "sfo1", "nyc2", "ams2", "sgp1", "lon1", "nyc3", "ams3", "fra1", "tor1", "sfo2", "blr1"],
    "created_at": "2016-05-26T22:25:41Z",
    "min_disk_size": 60,
    "type": "snapshot",
    "size_gigabytes": 2.29
  }, {
    "id": 17551182,
    "name": "cassandra1",
    "distribution": "Ubuntu",
    "slug": null,
    "public": true,
    "regions": ["nyc1", "sfo1", "nyc2", "ams2", "sgp1", "lon1", "nyc3", "ams3", "fra1", "tor1", "sfo2", "blr1"],
    "created_at": "2016-05-26T22:37:32Z",
    "min_disk_size": 60,
    "type": "snapshot",
    "size_gigabytes": 1.43
  }, {
    "id": 18027532,
    "name": "24 x64",
    "distribution": "Fedora",
    "slug": "fedora-24-x64",
    "public": true,
    "regions": ["nyc1", "sfo1", "nyc2", "ams2", "sgp1", "lon1", "nyc3", "ams3", "fra1", "tor1", "sfo2", "blr1"],
    "created_at": "2016-06-21T22:36:10Z",
    "min_disk_size": 20,
    "type": "snapshot",
    "size_gigabytes": 3.22
  }, {
    "id": 18285322,
    "name": "GitLab 8.9.4 CE on 14.04",
    "distribution": "Ubuntu",
    "slug": null,
    "public": true,
    "regions": ["nyc1", "sfo1", "nyc2", "ams2", "sgp1", "lon1", "nyc3", "ams3", "fra1", "tor1", "sfo2", "blr1"],
    "created_at": "2016-07-05T07:17:11Z",
    "min_disk_size": 30,
    "type": "snapshot",
    "size_gigabytes": 0.76
  }, {
    "id": 18290419,
    "name": "7.11 x32",
    "distribution": "Debian",
    "slug": null,
    "public": true,
    "regions": ["nyc1", "sfo1", "nyc2", "ams2", "sgp1", "lon1", "nyc3", "ams3", "fra1", "tor1", "sfo2", "blr1"],
    "created_at": "2016-07-05T21:26:04Z",
    "min_disk_size": 20,
    "type": "snapshot",
    "size_gigabytes": 20.97
  }, {
    "id": 18325354,
    "name": "7.2 x64",
    "distribution": "CentOS",
    "slug": null,
    "public": true,
    "regions": ["nyc1", "sfo1", "nyc2", "ams2", "sgp1", "lon1", "nyc3", "ams3", "fra1", "tor1", "sfo2", "blr1"],
    "created_at": "2016-07-07T16:11:45Z",
    "min_disk_size": 20,
    "type": "snapshot",
    "size_gigabytes": 20.97
  }, {
    "id": 18398713,
    "name": "WordPress on 14.04",
    "distribution": "Ubuntu",
    "slug": "wordpress",
    "public": true,
    "regions": ["nyc1", "sfo1", "nyc2", "ams2", "sgp1", "lon1", "nyc3", "ams3", "fra1", "tor1", "sfo2", "blr1"],
    "created_at": "2016-07-11T06:19:34Z",
    "min_disk_size": 30,
    "type": "snapshot",
    "size_gigabytes": 0.51
  }, {
    "id": 18835303,
    "name": "7.2 x64",
    "distribution": "CentOS",
    "slug": "centos-7-0-x64",
    "public": true,
    "regions": ["nyc1", "sfo1", "nyc2", "ams2", "sgp1", "lon1", "nyc3", "ams3", "fra1", "tor1", "sfo2", "blr1"],
    "created_at": "2016-08-03T00:52:23Z",
    "min_disk_size": 20,
    "type": "snapshot",
    "size_gigabytes": 0.47
  }, {
    "id": 20625979,
    "name": "5.11 x64",
    "distribution": "CentOS",
    "slug": "centos-5-x64",
    "public": true,
    "regions": ["nyc1", "sfo1", "nyc2", "ams2", "sgp1", "lon1", "nyc3", "ams3", "fra1", "tor1", "sfo2", "blr1"],
    "created_at": "2016-10-31T17:27:26Z",
    "min_disk_size": 20,
    "type": "snapshot",
    "size_gigabytes": 0.22
  }, {
    "id": 20625985,
    "name": "5.11 x32",
    "distribution": "CentOS",
    "slug": "centos-5-x32",
    "public": true,
    "regions": ["nyc1", "sfo1", "nyc2", "ams2", "sgp1", "lon1", "nyc3", "ams3", "fra1", "tor1", "sfo2", "blr1"],
    "created_at": "2016-10-31T17:27:47Z",
    "min_disk_size": 20,
    "type": "snapshot",
    "size_gigabytes": 0.21
  }, {
    "id": 21190386,
    "name": "25 x64",
    "distribution": "Fedora",
    "slug": "fedora-25-x64",
    "public": true,
    "regions": ["nyc1", "sfo1", "nyc2", "ams2", "sgp1", "lon1", "nyc3", "ams3", "fra1", "tor1", "sfo2", "blr1"],
    "created_at": "2016-11-28T14:06:44Z",
    "min_disk_size": 20,
    "type": "snapshot",
    "size_gigabytes": 0.19
  }],
  "links": {
    "pages": {
      "last": "https://api.digitalocean.com/v2/images?page=4&per_page=25&private=false&tag_name=&type=",
      "next": "https://api.digitalocean.com/v2/images?page=2&per_page=25&private=false&tag_name=&type="
    }
  },
  "meta": {
    "total": 84
  }
}
